{
  "navigation": {
    "analytics": "Analytics",
    "appearance": "Aussehen",
    "application": "Anwendung",
    "back": "Zurück",
    "credits": "Credits",
    "language": "Sprache",
    "miscellaneous": "Sonstiges",
    "welcomeBack": "Willkommem zurück",
    "openProject": "Projekt öffnen",
    "openFile": "Datei öffnen",
    "options": "Einstellungen",
    "personal": "Persönlich",
    "personalData": "Pers. Daten"
  },
  "overview": {
    "createVehicle": "+ Neues Fahrzeug",
    "createVehicleExplanation": "Erstellt ein neues Fahrzeug oder fügt es zum aktuellen Projekt hinzu",
    "fileExplorer": {
      "lastOpened": "Zuletzt geöffnet",
      "name": "Name",
      "path": "Pfad",
      "size": "Größe"
    },
    "title": {
      "text": "Übersicht",
      "description": "Durchsuche deine letzten Projekte und Dateien, damit du direkt fortfahren kannst."
    },
    "recentFiles": "Zuletzt verwendete Dateien",
    "recentFilesDescription": "Durchsuchen Sie Ihre letzten Projekte und Dateien, damit Sie direkt fortfahren können."
  },
  "settings": {
    "language": {
      "title": "Sprache",
      "description": "Dinge richtig benennen",
      "extendedDescription": "Die Sprache, die für angezeigte Inhalte verwendet wird"
    },
    "personal": {
      "title": "Persönliche Daten",
      "description": "Pesonalisiere deine Daten. Haah!",
      "signInWithDiscord": "Mit Discord einloggen"
    }
  }
}
