{
  "navigation": {
    "analytics": "Analytics",
    "appearance": "Appearance",
    "application": "Application",
    "back": "Back",
    "credits": "Credits",
    "language": "Language",
    "miscellaneous": "Miscellaneous",
    "welcomeBack": "Welcome Back",
    "openProject": "Open Project",
    "openFile": "Open File",
    "options": "Options",
    "personal": "Personal",
    "personalData": "Personal Data"
  },
  "overview": {
    "createVehicle": "+ Create Vehicle",
    "createVehicleExplanation": "Creates a new vehicle, or adds it to your current project.",
    "fileExplorer": {
      "lastOpened": "Last Opened",
      "name": "Name",
      "path": "Path",
      "size": "Size"
    },
    "title": {
      "text": "Overview",
      "description": "Browse your recent projects and files, so that you can directly proceed."
    },
    "recentFiles": "Recent Files",
    "recentFilesDescription": "Browse your recent projects and files, so that you can directly proceed."
  },
  "settings": {
    "language": {
      "title": "Language",
      "description": "Naming things the right way",
      "extendedDescription": "The language used to displayed content"
    },
    "personal": {
      "title": "Personal Data",
      "description": "Personalize your Data. Haah!",
      "signInWithDiscord": "Sign in with Discord"
    }
  }
}
